<?xml version="1.0" encoding="utf-8"?>
<!-- Generated by IcoMoon.io -->
<svg version="1.1" xmlns="http://www.w3.org/2000/svg" xmlns:xlink="http://www.w3.org/1999/xlink" width="2016" height="156" viewBox="0 0 2016 156">
<svg id="icon-umbrella" width="26" height="28" viewBox="0 0 26 28" x="0" y="0">
<path d="M14 12.938v9.063c0 2.172-1.828 4-4 4s-4-1.828-4-4c0-0.547 0.453-1 1-1s1 0.453 1 1c0 1.047 0.953 2 2 2s2-0.953 2-2v-9.063c0.328-0.109 0.656-0.172 1-0.172s0.672 0.063 1 0.172zM26 13.359c0 0.266-0.234 0.5-0.5 0.5-0.141 0-0.25-0.063-0.359-0.156-0.906-0.844-1.75-1.437-3.047-1.437-1.484 0-2.766 0.922-3.609 2.094-0.187 0.266-0.328 0.547-0.5 0.812-0.109 0.172-0.234 0.266-0.438 0.266-0.219 0-0.344-0.094-0.453-0.266-0.172-0.266-0.313-0.547-0.5-0.812-0.844-1.172-2.109-2.094-3.594-2.094s-2.75 0.922-3.594 2.094c-0.187 0.266-0.328 0.547-0.5 0.812-0.109 0.172-0.234 0.266-0.453 0.266-0.203 0-0.328-0.094-0.438-0.266-0.172-0.266-0.313-0.547-0.5-0.812-0.844-1.172-2.125-2.094-3.609-2.094-1.297 0-2.141 0.594-3.047 1.437-0.109 0.094-0.219 0.156-0.359 0.156-0.266 0-0.5-0.234-0.5-0.5 0-0.047 0-0.078 0.016-0.109 1.437-5.906 7.141-9.25 12.984-9.25 5.812 0 11.578 3.344 12.984 9.25 0.016 0.031 0.016 0.063 0.016 0.109zM14 2v1.531c-0.328-0.016-0.672-0.031-1-0.031s-0.672 0.016-1 0.031v-1.531c0-0.547 0.453-1 1-1s1 0.453 1 1z"></path>
</svg>
<svg id="icon-adventure" width="32" height="32" viewBox="0 0 32 32" x="0" y="60">
<path d="M19.285 6.924c1.625-0.193 2.787-1.679 2.596-3.32-0.193-1.637-1.669-2.802-3.296-2.612-1.627 0.197-2.789 1.68-2.596 3.32 0.191 1.633 1.668 2.805 3.296 2.612zM27.183 6.843c-0.203-0.097-0.464 0.012-0.577 0.248l-2.68 5.588-3.684 0.441-0.058-0.468c-0.007-1.138-0.088-3.324-0.564-4.051-0.446-0.681-2.005-1.513-3.249-2.101-1.17-0.062-2.155 0.402-2.739 1.624l-0.705 1.606-3.439 7.213c-0.176 0.258-0.414 0.627-0.226 0.882 0.108 0.146 0.304 0.289 0.542 0.429l-5.157 10.058c-0.476 0.928-0.22 2.027 0.577 2.441 0.795 0.41 1.835-0.011 2.314-0.941l5.357-10.44c0.023 0.007 0.043 0.012 0.043 0.012l4.153 4.144 0.296 2.786-1.839 3.827c-0.111 0.233-0.038 0.507 0.17 0.608 0.203 0.1 0.466-0.012 0.577-0.248l1.256-2.62 0.201 1.888c0.091 0.789 0.892 1.351 1.777 1.246l0.050-0.008c0.883-0.105 1.531-0.84 1.438-1.63l-0.745-6.957c-0.005-0.051-0.020-0.101-0.032-0.143l3.15-6.571 1.046-0.128c0.789-0.093 1.358-0.812 1.261-1.61l-0.003-0.046c-0.061-0.538-0.424-0.968-0.893-1.161l2.551-5.31c0.112-0.233 0.039-0.504-0.169-0.608zM19.747 21.4l-3.795-3.784 1.502-3.13 0.050 0.438c0.050 0.402 0.263 0.747 0.562 0.974 0.291 0.244 0.677 0.368 1.076 0.318l3.276-0.387-2.671 5.571zM7.237 12.511l0.692 0.368c1.158 0.611 2.592 0.163 3.196-0.994l2.868-5.479c0.604-1.158 0.158-2.608-0.997-3.216l-0.695-0.372c-1.153-0.608-2.589-0.158-3.196 0.999l-2.865 5.479c-0.607 1.161-0.158 2.609 0.997 3.215z"></path>
</svg>
<svg id="icon-airport-shuttle" width="32" height="32" viewBox="0 0 32 32" x="64" y="60">
<path d="M20 14.688h6.688l-5.375-5.375h-1.313v5.375zM23.313 23.313c1.125 0 2-0.875 2-2s-0.875-2-2-2-2 0.875-2 2 0.875 2 2 2zM17.313 14.688v-5.375h-5.313v5.375h5.313zM8 23.313c1.125 0 2-0.875 2-2s-0.875-2-2-2-2 0.875-2 2 0.875 2 2 2zM4 14.688h5.313v-5.375h-5.313v5.375zM22.688 6.688l8 8v6.625h-3.375c0 2.188-1.813 4-4 4s-4-1.813-4-4h-7.313c0 2.188-1.813 4-4 4s-4-1.813-4-4h-2.688v-12c0-1.5 1.25-2.625 2.688-2.625h18.688z"></path>
</svg>
<svg id="icon-hotel" width="32" height="32" viewBox="0 0 32 32" x="128" y="60">
<path d="M25.959 4.114h-4.726v2.7c0 0.707-0.265 1.346-0.766 1.847s-1.14 0.766-1.847 0.766h-5.241c-0.707 0-1.345-0.265-1.846-0.766s-0.766-1.139-0.766-1.847v-2.7h-4.726c-0.27 0-0.503 0.098-0.7 0.295s-0.296 0.431-0.296 0.7v25.895c0 0.269 0.098 0.503 0.296 0.7s0.43 0.296 0.7 0.296h6.654c-0.024-0.114-0.039-0.232-0.039-0.356v-4.535c0-0.452 0.165-0.844 0.496-1.176 0.331-0.33 0.723-0.496 1.176-0.496h3.345c0.453 0 0.844 0.167 1.176 0.496 0.331 0.332 0.497 0.724 0.497 1.176v4.535c0 0.124-0.015 0.242-0.039 0.356h6.654c0.269 0 0.503-0.099 0.7-0.296s0.296-0.431 0.296-0.7v-25.895c0-0.269-0.099-0.503-0.296-0.7s-0.431-0.295-0.701-0.295zM24.28 22.924c-0.12 0.12-0.261 0.179-0.425 0.179h-1.208c-0.164 0-0.306-0.060-0.425-0.179s-0.179-0.261-0.179-0.425v-1.208c0-0.163 0.060-0.305 0.179-0.425s0.261-0.18 0.425-0.18h1.208c0.164 0 0.305 0.060 0.425 0.18s0.18 0.261 0.18 0.425v1.208c0 0.164-0.060 0.306-0.18 0.425zM24.46 26.125v1.208c0 0.164-0.060 0.306-0.18 0.425s-0.261 0.179-0.425 0.179h-1.208c-0.164 0-0.306-0.059-0.425-0.179s-0.179-0.261-0.179-0.425v-1.208c0-0.163 0.060-0.305 0.179-0.425s0.261-0.179 0.425-0.179h1.208c0.164 0 0.305 0.060 0.425 0.179s0.18 0.261 0.18 0.425zM24.28 18.090c-0.12 0.12-0.261 0.18-0.425 0.18h-1.208c-0.164 0-0.306-0.060-0.425-0.18s-0.179-0.261-0.179-0.425v-1.208c0-0.164 0.060-0.306 0.179-0.425s0.261-0.18 0.425-0.18h1.208c0.164 0 0.305 0.060 0.425 0.18s0.18 0.261 0.18 0.425v1.208c0 0.164-0.060 0.306-0.18 0.425zM24.28 13.256c-0.12 0.12-0.261 0.18-0.425 0.18h-1.208c-0.164 0-0.306-0.060-0.425-0.18s-0.179-0.261-0.179-0.425v-1.208c0-0.163 0.060-0.305 0.179-0.425s0.261-0.179 0.425-0.179h1.208c0.164 0 0.305 0.060 0.425 0.179s0.18 0.261 0.18 0.425v1.208c0 0.164-0.060 0.306-0.18 0.425zM24.28 8.422c-0.12 0.12-0.261 0.179-0.425 0.179h-1.208c-0.164 0-0.306-0.059-0.425-0.179s-0.179-0.261-0.179-0.425v-1.209c0-0.163 0.060-0.305 0.179-0.425s0.261-0.179 0.425-0.179h1.208c0.164 0 0.305 0.060 0.425 0.179s0.18 0.261 0.18 0.425v1.209c0 0.164-0.060 0.306-0.18 0.425zM17.208 11.623c0-0.163 0.060-0.305 0.179-0.425s0.261-0.179 0.425-0.179h1.208c0.163 0 0.305 0.060 0.425 0.179s0.179 0.261 0.179 0.425v1.208c0 0.164-0.060 0.306-0.179 0.425-0.12 0.12-0.261 0.18-0.425 0.18h-1.208c-0.164 0-0.305-0.060-0.425-0.18s-0.179-0.261-0.179-0.425v-1.208zM17.208 16.457c0-0.164 0.060-0.306 0.179-0.425s0.261-0.18 0.425-0.18h1.208c0.163 0 0.305 0.060 0.425 0.18s0.179 0.261 0.179 0.425v1.208c0 0.164-0.060 0.306-0.179 0.425s-0.261 0.18-0.425 0.18h-1.208c-0.164 0-0.305-0.060-0.425-0.18s-0.179-0.261-0.179-0.425v-1.208zM9.778 22.924c-0.12 0.12-0.261 0.179-0.425 0.179h-1.208c-0.164 0-0.306-0.060-0.425-0.179s-0.18-0.261-0.18-0.425v-1.208c0-0.163 0.060-0.305 0.18-0.425s0.261-0.18 0.425-0.18h1.208c0.164 0 0.305 0.060 0.425 0.18s0.179 0.261 0.179 0.425v1.208c0 0.164-0.060 0.306-0.179 0.425zM9.957 26.125v1.208c0 0.164-0.060 0.306-0.179 0.425s-0.261 0.179-0.425 0.179h-1.208c-0.164 0-0.306-0.059-0.425-0.179s-0.18-0.261-0.18-0.425v-1.208c0-0.163 0.060-0.305 0.18-0.425s0.261-0.179 0.425-0.179h1.208c0.164 0 0.305 0.060 0.425 0.179s0.179 0.261 0.179 0.425zM9.778 18.090c-0.12 0.12-0.261 0.18-0.425 0.18h-1.208c-0.164 0-0.306-0.060-0.425-0.18s-0.18-0.261-0.18-0.425v-1.208c0-0.164 0.060-0.306 0.18-0.425s0.261-0.18 0.425-0.18h1.208c0.164 0 0.305 0.060 0.425 0.18s0.179 0.261 0.179 0.425v1.208c0 0.164-0.060 0.306-0.179 0.425zM9.778 13.256c-0.12 0.12-0.261 0.18-0.425 0.18h-1.208c-0.164 0-0.306-0.060-0.425-0.18s-0.18-0.261-0.18-0.425v-1.208c0-0.163 0.060-0.305 0.18-0.425s0.261-0.179 0.425-0.179h1.208c0.164 0 0.305 0.060 0.425 0.179s0.179 0.261 0.179 0.425v1.208c0 0.164-0.060 0.306-0.179 0.425zM9.778 8.422c-0.12 0.12-0.261 0.179-0.425 0.179h-1.208c-0.164 0-0.306-0.059-0.425-0.179s-0.18-0.261-0.18-0.425v-1.209c0-0.163 0.060-0.305 0.18-0.425s0.261-0.179 0.425-0.179h1.208c0.164 0 0.305 0.060 0.425 0.179s0.179 0.261 0.179 0.425v1.209c0 0.164-0.060 0.306-0.179 0.425zM14.791 22.499c0 0.164-0.060 0.306-0.179 0.425s-0.261 0.179-0.425 0.179h-1.209c-0.164 0-0.305-0.060-0.425-0.179s-0.179-0.261-0.179-0.425v-1.208c0-0.163 0.060-0.305 0.179-0.425s0.261-0.18 0.425-0.18h1.209c0.163 0 0.305 0.060 0.425 0.18s0.179 0.262 0.179 0.425v1.208zM14.791 17.665c0 0.164-0.060 0.306-0.179 0.425s-0.261 0.18-0.425 0.18h-1.209c-0.164 0-0.305-0.060-0.425-0.18s-0.179-0.261-0.179-0.425v-1.208c0-0.164 0.060-0.306 0.179-0.425s0.261-0.18 0.425-0.18h1.209c0.163 0 0.305 0.060 0.425 0.18s0.179 0.261 0.179 0.425v1.208zM14.791 12.831c0 0.164-0.060 0.306-0.179 0.425-0.12 0.12-0.261 0.18-0.425 0.18h-1.209c-0.164 0-0.305-0.060-0.425-0.18s-0.179-0.261-0.179-0.425v-1.208c0-0.163 0.060-0.305 0.179-0.425s0.261-0.179 0.425-0.179h1.209c0.163 0 0.305 0.060 0.425 0.179s0.179 0.261 0.179 0.425v1.208zM19.021 23.103h-1.208c-0.164 0-0.305-0.060-0.425-0.179s-0.179-0.261-0.179-0.425v-1.208c0-0.163 0.060-0.305 0.179-0.425s0.261-0.18 0.425-0.18h1.208c0.163 0 0.305 0.060 0.425 0.18s0.179 0.261 0.179 0.425v1.208c0 0.164-0.060 0.306-0.179 0.425s-0.261 0.179-0.425 0.179zM12.376 8.014c0.286 0.243 0.618 0.372 1.004 0.372h5.241c0.385 0 0.717-0.129 1.004-0.372 0.036-0.030 0.073-0.055 0.108-0.089 0.308-0.308 0.462-0.678 0.462-1.111v-5.241c0-0.433-0.154-0.803-0.462-1.111s-0.678-0.462-1.111-0.462h-5.241c-0.433 0-0.803 0.154-1.111 0.462s-0.462 0.678-0.462 1.111v5.241c0 0.433 0.154 0.803 0.462 1.111 0.034 0.034 0.072 0.059 0.107 0.090zM13.205 4.114v-2.367c0-0.094 0.035-0.176 0.104-0.246s0.151-0.104 0.245-0.104h0.699c0.095 0 0.177 0.035 0.245 0.104s0.104 0.151 0.104 0.246v1.747h2.795v-1.747c0-0.094 0.035-0.176 0.104-0.246s0.151-0.104 0.245-0.104h0.699c0.095 0 0.177 0.035 0.245 0.104s0.104 0.151 0.104 0.246v4.892c0 0.095-0.035 0.176-0.104 0.245s-0.151 0.104-0.245 0.104h-0.699c-0.095 0-0.177-0.034-0.245-0.104s-0.104-0.151-0.104-0.245v-1.747h-2.795v1.747c0 0.095-0.035 0.176-0.104 0.245s-0.151 0.104-0.245 0.104h-0.699c-0.095 0-0.177-0.034-0.245-0.104s-0.104-0.151-0.104-0.245v-2.525h-0.001z"></path>
</svg>
<svg id="icon-passport" width="32" height="32" viewBox="0 0 32 32" x="192" y="60">
<path d="M16 12.277c-0.486 0.689-1.117 1.932-1.276 3.869h2.552c-0.159-1.937-0.79-3.18-1.276-3.869zM19.157 18.021c-0.117 1.654-0.534 2.933-0.999 3.876 1.562-0.703 2.722-2.144 3.034-3.876h-2.035zM14.725 18.021c0.161 1.92 0.795 3.17 1.279 3.863 0.485-0.69 1.113-1.932 1.272-3.863h-2.551zM18.158 12.27c0.465 0.944 0.882 2.222 0.999 3.876h2.035c-0.312-1.732-1.472-3.173-3.034-3.876zM12.843 18.021h-2.035c0.312 1.733 1.472 3.173 3.034 3.876-0.465-0.944-0.882-2.222-0.999-3.876zM10.808 16.146h2.035c0.117-1.654 0.534-2.933 0.999-3.876-1.562 0.703-2.722 2.144-3.034 3.876zM5.095 5.919v26.081h21.811v-26.081h-21.811zM22.215 27.989h-12.429v-1.875h12.429v1.875zM16 24.236c-3.944 0-7.152-3.209-7.152-7.152s3.208-7.152 7.152-7.152c3.944 0 7.152 3.208 7.152 7.152s-3.208 7.152-7.152 7.152zM5.934 4.044h19.095v-4.044z"></path>
</svg>
<svg id="icon-apartment" width="32" height="32" viewBox="0 0 32 32" x="0" y="124">
<path d="M25.313 20v-2.688h-2.625v2.688h2.625zM25.313 25.313v-2.625h-2.625v2.625h2.625zM20 9.313v-2.625h-2.688v2.625h2.688zM20 14.688v-2.688h-2.688v2.688h2.688zM20 20v-2.688h-2.688v2.688h2.688zM14.688 9.313v-2.625h-2.688v2.625h2.688zM14.688 14.688v-2.688h-2.688v2.688h2.688zM14.688 20v-2.688h-2.688v2.688h2.688zM9.313 14.688v-2.688h-2.625v2.688h2.625zM9.313 20v-2.688h-2.625v2.688h2.625zM9.313 25.313v-2.625h-2.625v2.625h2.625zM22.688 14.688h5.313v13.313h-10.688v-5.313h-2.625v5.313h-10.688v-18.688h5.313v-5.313h13.375v10.688z"></path>
</svg>
</svg>
